[ {
  "name" : "Common",
  "type" : "PARTIAL",
  "params" : [ ]
}, {
  "name" : "Login",
  "type" : "PAGE",
  "params" : [ ]
}, {
  "name" : "Main",
  "type" : "PAGE",
  "params" : [ ]
}, {
  "name" : "accordion_binding",
  "type" : "PAGE",
  "params" : [ ]
}, {
  "name" : "accordion_binding_partial",
  "type" : "PARTIAL",
  "params" : [ ]
}, {
  "name" : "accordion_events",
  "type" : "PAGE",
  "params" : [ ]
}, {
  "name" : "accordion_events_partial",
  "type" : "PARTIAL",
  "params" : [ ]
}, {
  "name" : "accordion_script",
  "type" : "PAGE",
  "params" : [ ]
}, {
  "name" : "accordion_script_partial",
  "type" : "PARTIAL",
  "params" : [ ]
}, {
  "name" : "anchor_binding",
  "type" : "PAGE",
  "params" : [ ]
}, {
  "name" : "anchor_binding_partial",
  "type" : "PARTIAL",
  "params" : [ ]
}, {
  "name" : "anchor_events",
  "type" : "PAGE",
  "params" : [ ]
}, {
  "name" : "anchor_events_partial",
  "type" : "PARTIAL",
  "params" : [ ]
}, {
  "name" : "anchor_script",
  "type" : "PAGE",
  "params" : [ ]
}, {
  "name" : "anchor_script_partial",
  "type" : "PARTIAL",
  "params" : [ ]
}, {
  "name" : "checkboxset_binding",
  "type" : "PAGE",
  "params" : [ ]
}, {
  "name" : "checkboxset_binding_partial",
  "type" : "PARTIAL",
  "params" : [ ]
}, {
  "name" : "checkboxset_events",
  "type" : "PAGE",
  "params" : [ ]
}, {
  "name" : "checkboxset_events_partial",
  "type" : "PARTIAL",
  "params" : [ ]
}, {
  "name" : "checkboxset_script",
  "type" : "PAGE",
  "params" : [ ]
}, {
  "name" : "checkboxset_script_partial",
  "type" : "PARTIAL",
  "params" : [ ]
}, {
  "name" : "footer",
  "type" : "FOOTER",
  "params" : [ ]
}, {
  "name" : "header",
  "type" : "HEADER",
  "params" : [ ]
}, {
  "name" : "html_binding",
  "type" : "PAGE",
  "params" : [ ]
}, {
  "name" : "html_binding_partial",
  "type" : "PARTIAL",
  "params" : [ ]
}, {
  "name" : "html_events",
  "type" : "PAGE",
  "params" : [ ]
}, {
  "name" : "html_events_partial",
  "type" : "PARTIAL",
  "params" : [ ]
}, {
  "name" : "html_script",
  "type" : "PAGE",
  "params" : [ ]
}, {
  "name" : "html_script_partial",
  "type" : "PARTIAL",
  "params" : [ ]
}, {
  "name" : "iframedialog_binding",
  "type" : "PAGE",
  "params" : [ ]
}, {
  "name" : "iframedialog_binding_partial",
  "type" : "PARTIAL",
  "params" : [ ]
}, {
  "name" : "iframedialog_events",
  "type" : "PAGE",
  "params" : [ ]
}, {
  "name" : "iframedialog_events_partial",
  "type" : "PARTIAL",
  "params" : [ ]
}, {
  "name" : "iframedialog_script",
  "type" : "PAGE",
  "params" : [ ]
}, {
  "name" : "iframedialog_script_partial",
  "type" : "PARTIAL",
  "params" : [ ]
}, {
  "name" : "leftnav",
  "type" : "LEFTNAV",
  "params" : [ ]
}, {
  "name" : "parent_frame",
  "type" : "PAGE",
  "params" : [ ]
}, {
  "name" : "picture_binding",
  "type" : "PAGE",
  "params" : [ ]
}, {
  "name" : "picture_binding_partial",
  "type" : "PARTIAL",
  "params" : [ ]
}, {
  "name" : "picture_events",
  "type" : "PAGE",
  "params" : [ ]
}, {
  "name" : "picture_events_partial",
  "type" : "PARTIAL",
  "params" : [ ]
}, {
  "name" : "picture_script",
  "type" : "PAGE",
  "params" : [ ]
}, {
  "name" : "picture_script_partial",
  "type" : "PARTIAL",
  "params" : [ ]
}, {
  "name" : "radioset_binding",
  "type" : "PAGE",
  "params" : [ ]
}, {
  "name" : "radioset_binding_partial",
  "type" : "PARTIAL",
  "params" : [ ]
}, {
  "name" : "radioset_events",
  "type" : "PAGE",
  "params" : [ ]
}, {
  "name" : "radioset_events_partial",
  "type" : "PARTIAL",
  "params" : [ ]
}, {
  "name" : "radioset_script",
  "type" : "PAGE",
  "params" : [ ]
}, {
  "name" : "radioset_script_partial",
  "type" : "PARTIAL",
  "params" : [ ]
}, {
  "name" : "rightnav",
  "type" : "RIGHTNAV",
  "params" : [ ]
}, {
  "name" : "tabs_binding",
  "type" : "PAGE",
  "params" : [ ]
}, {
  "name" : "tabs_binding_partial",
  "type" : "PARTIAL",
  "params" : [ ]
}, {
  "name" : "tabs_events",
  "type" : "PAGE",
  "params" : [ ]
}, {
  "name" : "tabs_events_partial",
  "type" : "PARTIAL",
  "params" : [ ]
}, {
  "name" : "tabs_script",
  "type" : "PAGE",
  "params" : [ ]
}, {
  "name" : "tabs_script_partial",
  "type" : "PARTIAL",
  "params" : [ ]
}, {
  "name" : "target_check",
  "type" : "PAGE",
  "params" : [ ]
}, {
  "name" : "test",
  "type" : "PAGE",
  "params" : [ ]
}, {
  "name" : "time_binding",
  "type" : "PAGE",
  "params" : [ ]
}, {
  "name" : "time_binding_partial",
  "type" : "PARTIAL",
  "params" : [ ]
}, {
  "name" : "time_events",
  "type" : "PAGE",
  "params" : [ ]
}, {
  "name" : "time_events_partial",
  "type" : "PARTIAL",
  "params" : [ ]
}, {
  "name" : "time_script",
  "type" : "PAGE",
  "params" : [ ]
}, {
  "name" : "time_script_partial",
  "type" : "PARTIAL",
  "params" : [ ]
}, {
  "name" : "toggle_binding",
  "type" : "PAGE",
  "params" : [ ]
}, {
  "name" : "toggle_binding_partial",
  "type" : "PARTIAL",
  "params" : [ ]
}, {
  "name" : "toggle_events",
  "type" : "PAGE",
  "params" : [ ]
}, {
  "name" : "toggle_events_partial",
  "type" : "PARTIAL",
  "params" : [ ]
}, {
  "name" : "toggle_script",
  "type" : "PAGE",
  "params" : [ ]
}, {
  "name" : "toggle_script_partial",
  "type" : "PARTIAL",
  "params" : [ ]
}, {
  "name" : "topnav",
  "type" : "TOPNAV",
  "params" : [ ]
} ]